<svg width="15" height="15" viewBox="0 0 15 15" fill="none" xmlns="http://www.w3.org/2000/svg">
<path fill-rule="evenodd" clip-rule="evenodd" d="M11.1947 2.05643C11.2238 2.07918 12.1998 2.83752 12.1998 2.83752C12.5544 3.04868 12.8315 3.4261 12.9365 3.87293C13.0409 4.3151 12.9651 4.77127 12.7218 5.15685C12.7202 5.15942 12.7186 5.16196 12.713 5.16952L12.7086 5.17536C12.6691 5.2274 12.4974 5.44443 11.6312 6.52977C11.6231 6.544 11.614 6.55732 11.6041 6.57027C11.5894 6.58935 11.5735 6.60689 11.5566 6.62286C11.4975 6.69725 11.4351 6.77543 11.3695 6.85761L11.2365 7.02413C10.9622 7.3677 10.6368 7.77511 10.2507 8.25833L10.0526 8.50631C9.30728 9.43916 8.35276 10.6335 7.13 12.1633C6.86225 12.4969 6.46092 12.6912 6.02983 12.6964L3.90708 12.7233H3.90125C3.69883 12.7233 3.52267 12.5844 3.47542 12.3867L2.99767 10.3619C2.89908 9.94252 2.99708 9.50968 3.266 9.17368L8.761 2.30085C8.76333 2.29852 8.76509 2.2956 8.76742 2.29327C9.37 1.57285 10.4597 1.46668 11.1947 2.05643ZM8.14834 4.46756L3.94908 9.72027C3.84933 9.8451 3.81258 10.0061 3.84933 10.1607L4.24658 11.8436L6.01933 11.8214C6.18792 11.8197 6.34367 11.7444 6.44692 11.6161C6.97862 10.9509 7.64687 10.1147 8.33392 9.25499L8.57699 8.9508L8.82048 8.6461C9.46482 7.83974 10.1014 7.04301 10.634 6.37614L8.14834 4.46756ZM9.44117 2.85152L8.69493 3.78389L11.1804 5.69193C11.6588 5.09271 11.9735 4.69805 12.0026 4.66043C12.0983 4.50527 12.1356 4.28593 12.0854 4.07477C12.0341 3.85835 11.8993 3.6746 11.7051 3.55735C11.6637 3.52877 10.6808 2.76577 10.6504 2.74185C10.2806 2.44552 9.741 2.49685 9.44117 2.85152Z" fill="#CDF270"/>
</svg>
