<svg width="56" height="26" viewBox="0 0 56 26" fill="none" xmlns="http://www.w3.org/2000/svg">
<g opacity="0.3">
<rect x="0.0151367" y="0.202637" width="55.9777" height="25" rx="12.5" fill="#FAFAFA"/>
</g>
<path fill-rule="evenodd" clip-rule="evenodd" d="M44.7999 7.55976C44.8291 7.58251 45.805 8.34084 45.805 8.34084C46.1597 8.55201 46.4368 8.92943 46.5418 9.37626C46.6462 9.81843 46.5703 10.2746 46.3271 10.6602C46.3255 10.6627 46.3239 10.6653 46.3182 10.6728L46.3138 10.6787C46.2743 10.7307 46.1027 10.9478 45.2364 12.0331C45.2284 12.0473 45.2193 12.0606 45.2093 12.0736C45.1947 12.0927 45.1788 12.1102 45.1618 12.1262C45.1027 12.2006 45.0403 12.2788 44.9747 12.3609L44.8418 12.5275C44.5674 12.871 44.242 13.2784 43.856 13.7617L43.6578 14.0096C42.9125 14.9425 41.958 16.1369 40.7353 17.6666C40.4675 18.0003 40.0662 18.1945 39.6351 18.1998L37.5123 18.2266H37.5065C37.3041 18.2266 37.1279 18.0878 37.0807 17.89L36.6029 15.8653C36.5043 15.4458 36.6023 15.013 36.8713 14.677L42.3663 7.80418C42.3686 7.80184 42.3703 7.79893 42.3727 7.79659C42.9753 7.07618 44.0649 6.97001 44.7999 7.55976ZM41.7536 9.97088L37.5543 15.2236C37.4546 15.3484 37.4178 15.5094 37.4546 15.664L37.8518 17.3469L39.6246 17.3248C39.7932 17.323 39.9489 17.2478 40.0522 17.1194C40.5839 16.4542 41.2521 15.6181 41.9392 14.7583L42.1822 14.4541L42.4257 14.1494C43.0701 13.3431 43.7066 12.5463 44.2393 11.8795L41.7536 9.97088ZM43.0464 8.35484L42.3002 9.28722L44.7856 11.1953C45.264 10.596 45.5787 10.2014 45.6078 10.1638C45.7035 10.0086 45.7408 9.78926 45.6907 9.57809C45.6393 9.36168 45.5046 9.17793 45.3103 9.06068C45.2689 9.03209 44.286 8.26909 44.2557 8.24518C43.8858 7.94884 43.3463 8.00018 43.0464 8.35484Z" fill="#FAFAFA"/>
<path d="M17.0041 15.8947V17.2027H10.7041V8.80272H16.8361V10.1107H12.2641V12.2947H16.3201V13.5787H12.2641V15.8947H17.0041Z" fill="#FAFAFA"/>
<path d="M24.2166 8.29872V17.2027H22.7766V16.3747C22.5286 16.6787 22.2206 16.9067 21.8526 17.0587C21.4926 17.2107 21.0926 17.2867 20.6526 17.2867C20.0366 17.2867 19.4806 17.1507 18.9846 16.8787C18.4966 16.6067 18.1126 16.2227 17.8326 15.7267C17.5526 15.2227 17.4126 14.6467 17.4126 13.9987C17.4126 13.3507 17.5526 12.7787 17.8326 12.2827C18.1126 11.7867 18.4966 11.4027 18.9846 11.1307C19.4806 10.8587 20.0366 10.7227 20.6526 10.7227C21.0766 10.7227 21.4646 10.7947 21.8166 10.9387C22.1686 11.0827 22.4686 11.2987 22.7166 11.5867V8.29872H24.2166ZM20.8326 16.0027C21.1926 16.0027 21.5166 15.9227 21.8046 15.7627C22.0926 15.5947 22.3206 15.3587 22.4886 15.0547C22.6566 14.7507 22.7406 14.3987 22.7406 13.9987C22.7406 13.5987 22.6566 13.2467 22.4886 12.9427C22.3206 12.6387 22.0926 12.4067 21.8046 12.2467C21.5166 12.0787 21.1926 11.9947 20.8326 11.9947C20.4726 11.9947 20.1486 12.0787 19.8606 12.2467C19.5726 12.4067 19.3446 12.6387 19.1766 12.9427C19.0086 13.2467 18.9246 13.5987 18.9246 13.9987C18.9246 14.3987 19.0086 14.7507 19.1766 15.0547C19.3446 15.3587 19.5726 15.5947 19.8606 15.7627C20.1486 15.9227 20.4726 16.0027 20.8326 16.0027Z" fill="#FAFAFA"/>
<path d="M25.5789 10.7947H27.0789V17.2027H25.5789V10.7947ZM26.3349 9.73872C26.0629 9.73872 25.8349 9.65472 25.6509 9.48672C25.4669 9.31072 25.3749 9.09472 25.3749 8.83872C25.3749 8.58272 25.4669 8.37072 25.6509 8.20272C25.8349 8.02672 26.0629 7.93872 26.3349 7.93872C26.6069 7.93872 26.8349 8.02272 27.0189 8.19072C27.2029 8.35072 27.2949 8.55472 27.2949 8.80272C27.2949 9.06672 27.2029 9.29072 27.0189 9.47472C26.8429 9.65072 26.6149 9.73872 26.3349 9.73872Z" fill="#FAFAFA"/>
<path d="M32.2996 16.8547C32.1236 16.9987 31.9076 17.1067 31.6516 17.1787C31.4036 17.2507 31.1396 17.2867 30.8596 17.2867C30.1556 17.2867 29.6116 17.1027 29.2276 16.7347C28.8436 16.3667 28.6516 15.8307 28.6516 15.1267V12.0427H27.5956V10.8427H28.6516V9.37872H30.1516V10.8427H31.8676V12.0427H30.1516V15.0907C30.1516 15.4027 30.2276 15.6427 30.3796 15.8107C30.5316 15.9707 30.7516 16.0507 31.0396 16.0507C31.3756 16.0507 31.6556 15.9627 31.8796 15.7867L32.2996 16.8547Z" fill="#FAFAFA"/>
</svg>
